{
  "Hotels": [
    {
      "Name": "The Ritz",
      "Country": "England",
      "Address": "150 Piccadilly, St. James's, London W1J 9BR",
      "Guests": [
        {
          "id": "688f24-53ad-66fb-f860-e00f2da1bed1",
          "Name": "Elion",
          "LastName": "Bajrami",
          "Department": "IT"
        },
        {
          "id": "7a6603-cbe-2c5f-7b6a-5f15f14e1f1",
          "Name": "Franz",
          "LastName": "Müller",
          "Department": "Verkauf"
        }
      ],
      "id": 1
    },
    {
      "id": 2,
      "Name": "RMS Queen Mary",
      "Country": "USA",
      "Address": "1126 Queens Hwy, Long Beach, CA 90802",
      "Guests": [
        {
          "id": "38e2f7-d7cc-7b4-533c-dd2c2e338",
          "Name": "Lorenzo",
          "LastName": "Lettieri",
          "Department": "IT"
        }
      ]
    },
    {
      "Name": "Sunshine",
      "Country": "Switzerland",
      "Address": "Bergstrasse 8",
      "Guests": [
        {
          "id": "8e4288-013a-fcb5-3a2c-c01ff22656b",
          "Name": "Nils",
          "LastName": "Hindermann",
          "Department": "IT"
        },
        {
          "id": "52d22b2-d0a4-121a-2f64-531bc62134",
          "Name": "leo",
          "LastName": "messi",
          "Department": "IT AW"
        }
      ],
      "id": 3
    }
  ]
}